<?xml version="1.0" encoding="UTF-8" standalone="no"?>
<!-- Created with Inkscape (http://www.inkscape.org/) -->

<svg
   xmlns:dc="http://purl.org/dc/elements/1.1/"
   xmlns:cc="http://creativecommons.org/ns#"
   xmlns:rdf="http://www.w3.org/1999/02/22-rdf-syntax-ns#"
   xmlns:svg="http://www.w3.org/2000/svg"
   xmlns="http://www.w3.org/2000/svg"
   xmlns:sodipodi="http://sodipodi.sourceforge.net/DTD/sodipodi-0.dtd"
   xmlns:inkscape="http://www.inkscape.org/namespaces/inkscape"
   width="275"
   height="125"
   viewBox="0 0 72.760414 33.072918"
   version="1.1"
   id="svg8"
   inkscape:version="0.92.5 (2060ec1f9f, 2020-04-08)"
   sodipodi:docname="logo.svg">
  <defs
     id="defs2" />
  <sodipodi:namedview
     id="base"
     pagecolor="#ffffff"
     bordercolor="#666666"
     borderopacity="1.0"
     inkscape:pageopacity="0.0"
     inkscape:pageshadow="2"
     inkscape:zoom="3.959798"
     inkscape:cx="86.437313"
     inkscape:cy="42.83644"
     inkscape:document-units="px"
     inkscape:current-layer="layer1"
     showgrid="false"
     units="px"
     inkscape:window-width="1920"
     inkscape:window-height="1031"
     inkscape:window-x="0"
     inkscape:window-y="0"
     inkscape:window-maximized="1" />
  <metadata
     id="metadata5">
    <rdf:RDF>
      <cc:Work
         rdf:about="">
        <dc:format>image/svg+xml</dc:format>
        <dc:type
           rdf:resource="http://purl.org/dc/dcmitype/StillImage" />
        <dc:title></dc:title>
      </cc:Work>
    </rdf:RDF>
  </metadata>
  <g
     inkscape:label="Layer 1"
     inkscape:groupmode="layer"
     id="layer1"
     transform="translate(0,-263.92707)">
    <path
       style="stroke-width:0.02295247;fill:#d40000"
       d="m 15.580741,263.92707 -0.354474,1.32292 -2.481321,9.26041 H 3.4845294 l -0.3544744,1.32292 -2.4813212,9.26042 -0.3544744,1.32291 h 9.2604165 l -2.4813211,9.26042 -0.3544745,1.32292 H 8.041797 63.604296 l 0.354474,-1.32292 H 8.3962714 L 11.232067,285.09374 H 1.9716505 l 2.4813211,-9.26042 h 9.2604164 l 0.354474,-1.32292 2.481321,-9.26041 h 55.5625 l 0.354474,-1.32292 H 16.903658 Z m 8.551468,2.64583 -0.354475,1.32292 h 47.625 l 0.354474,-1.32292 z m -0.708949,2.64584 -0.354475,1.32291 h 47.625 l 0.354474,-1.32291 z m -0.708949,2.64583 -0.354474,1.32292 h 47.624999 l 0.354474,-1.32292 z m -0.708949,2.64583 -0.354474,1.32292 h 47.624999 l 0.354475,-1.32292 z m -2.835795,10.58334 -0.354475,1.32291 h 47.624999 l 0.354475,-1.32291 z m -0.708949,2.64583 -0.354475,1.32292 h 47.625 l 0.354474,-1.32292 z m -0.708949,2.64583 -0.354475,1.32292 h 47.625 l 0.354474,-1.32292 z m -0.708949,2.64584 -0.354475,1.32291 h 47.625 l 0.354474,-1.32291 z"
       id="rect3713"
       inkscape:connector-curvature="0" />
    <g
       aria-label="SWISS XI 香港"
       style="font-style:normal;font-weight:normal;font-size:10.58333302px;line-height:1.25;font-family:sans-serif;letter-spacing:0px;word-spacing:0px;fill:#000000;fill-opacity:1;stroke:none;stroke-width:0.26458332"
       id="text3800"
       transform="matrix(1,0,-0.26794919,1,75.103677,0)">
      <path
         d="m 23.549037,279.3754 h 1.187619 c -0.01002,-0.95961 -0.774207,-1.60855 -1.966837,-1.60855 -1.172585,0 -2.016947,0.63891 -2.00943,1.59352 -0.0025,0.77922 0.543699,1.21768 1.430654,1.42063 l 0.536182,0.12528 c 0.563743,0.13028 0.816801,0.28312 0.821812,0.57126 -0.005,0.31319 -0.298157,0.53117 -0.796756,0.53117 -0.54871,0 -0.909506,-0.25557 -0.937066,-0.74915 h -1.187619 c 0.01503,1.20014 0.849373,1.77391 2.139718,1.77391 1.277817,0 2.034485,-0.57878 2.039496,-1.55343 -0.005,-0.8193 -0.558731,-1.32041 -1.570963,-1.5434 l -0.440972,-0.10022 c -0.466028,-0.10022 -0.76168,-0.25557 -0.751658,-0.56124 0.0025,-0.28062 0.243036,-0.48357 0.724097,-0.48357 0.483566,0 0.749151,0.21798 0.781723,0.58379 z"
         style="font-style:normal;font-variant:normal;font-weight:800;font-stretch:normal;font-size:7.05555582px;font-family:Inter;-inkscape-font-specification:'Inter Ultra-Bold';stroke-width:0.26458332"
         id="path31"
         inkscape:connector-curvature="0" />
      <path
         d="m 26.665907,282.96832 h 1.192629 l 0.924538,-3.11186 h 0.04009 l 0.924538,3.11186 h 1.195135 l 1.490787,-5.13131 h -1.368016 l -0.776713,3.36993 H 30.2463 l -0.88445,-3.36993 h -1.117463 l -0.88445,3.36241 h -0.04259 l -0.774207,-3.36241 h -1.370522 z"
         style="font-style:normal;font-variant:normal;font-weight:800;font-stretch:normal;font-size:7.05555582px;font-family:Inter;-inkscape-font-specification:'Inter Ultra-Bold';stroke-width:0.26458332"
         id="path33"
         inkscape:connector-curvature="0" />
      <path
         d="m 34.187489,277.83701 h -1.240235 v 5.13131 h 1.240235 z"
         style="font-style:normal;font-variant:normal;font-weight:800;font-stretch:normal;font-size:7.05555582px;font-family:Inter;-inkscape-font-specification:'Inter Ultra-Bold';stroke-width:0.26458332"
         id="path35"
         inkscape:connector-curvature="0" />
      <path
         d="m 37.737811,279.3754 h 1.187619 c -0.01002,-0.95961 -0.774207,-1.60855 -1.966837,-1.60855 -1.172585,0 -2.016946,0.63891 -2.00943,1.59352 -0.0025,0.77922 0.543699,1.21768 1.430654,1.42063 l 0.536182,0.12528 c 0.563743,0.13028 0.816801,0.28312 0.821812,0.57126 -0.005,0.31319 -0.298157,0.53117 -0.796756,0.53117 -0.54871,0 -0.909506,-0.25557 -0.937066,-0.74915 H 34.81637 c 0.01503,1.20014 0.849373,1.77391 2.139718,1.77391 1.277817,0 2.034485,-0.57878 2.039496,-1.55343 -0.005,-0.8193 -0.558731,-1.32041 -1.570963,-1.5434 l -0.440972,-0.10022 c -0.466028,-0.10022 -0.76168,-0.25557 -0.751658,-0.56124 0.0025,-0.28062 0.243036,-0.48357 0.724097,-0.48357 0.483566,0 0.749152,0.21798 0.781723,0.58379 z"
         style="font-style:normal;font-variant:normal;font-weight:800;font-stretch:normal;font-size:7.05555582px;font-family:Inter;-inkscape-font-specification:'Inter Ultra-Bold';stroke-width:0.26458332"
         id="path37"
         inkscape:connector-curvature="0" />
      <path
         d="m 42.398084,279.3754 h 1.187618 c -0.01002,-0.95961 -0.774207,-1.60855 -1.966836,-1.60855 -1.172585,0 -2.016947,0.63891 -2.00943,1.59352 -0.0025,0.77922 0.543698,1.21768 1.430654,1.42063 l 0.536182,0.12528 c 0.563743,0.13028 0.816801,0.28312 0.821812,0.57126 -0.005,0.31319 -0.298157,0.53117 -0.796757,0.53117 -0.548709,0 -0.909505,-0.25557 -0.937066,-0.74915 h -1.187618 c 0.01503,1.20014 0.849373,1.77391 2.139717,1.77391 1.277818,0 2.034486,-0.57878 2.039497,-1.55343 -0.005,-0.8193 -0.558732,-1.32041 -1.570964,-1.5434 l -0.440972,-0.10022 c -0.466027,-0.10022 -0.761679,-0.25557 -0.751657,-0.56124 0.0025,-0.28062 0.243036,-0.48357 0.724096,-0.48357 0.483567,0 0.749152,0.21798 0.781724,0.58379 z"
         style="font-style:normal;font-variant:normal;font-weight:800;font-stretch:normal;font-size:7.05555582px;font-family:Inter;-inkscape-font-specification:'Inter Ultra-Bold';stroke-width:0.26458332"
         id="path39"
         inkscape:connector-curvature="0" />
      <path
         d="m 47.058354,277.83701 h -1.398083 l 1.55092,2.56566 -1.591008,2.56565 h 1.413116 l 0.962121,-1.63861 h 0.04009 l 0.962122,1.63861 h 1.423137 l -1.598524,-2.56565 1.548414,-2.56566 h -1.388061 l -0.947088,1.62107 h -0.04009 z"
         style="font-style:normal;font-variant:normal;font-weight:800;font-stretch:normal;font-size:7.05555582px;font-family:Inter;-inkscape-font-specification:'Inter Ultra-Bold';stroke-width:0.26458332"
         id="path41"
         inkscape:connector-curvature="0" />
      <path
         d="m 52.254808,277.83701 h -1.240235 v 5.13131 h 1.240235 z"
         style="font-style:normal;font-variant:normal;font-weight:800;font-stretch:normal;font-size:7.05555582px;font-family:Inter;-inkscape-font-specification:'Inter Ultra-Bold';stroke-width:0.26458332"
         id="path43"
         inkscape:connector-curvature="0" />
      <path
         d="m 59.058059,281.38788 v 0.381 h -2.659945 v -0.381 z m -2.659945,1.34055 v -0.38805 h 2.659945 v 0.38805 z m 1.728611,-2.13783 v -1.00189 c 0.860778,0.47272 1.848556,1.11478 2.3495,1.56633 l 0.500945,-0.64205 c -0.416278,-0.33867 -1.128889,-0.78317 -1.827389,-1.17122 h 1.693333 v -0.74789 h -2.716389 v -0.57856 c 0.705556,-0.0847 1.382889,-0.1905 1.9685,-0.33866 l -0.592666,-0.67028 c -1.058334,0.26105 -2.815167,0.43039 -4.360334,0.48683 0.08467,0.1905 0.183445,0.508 0.204611,0.71261 0.620889,-0.0141 1.262945,-0.0494 1.905,-0.10583 v 0.49389 h -2.702278 v 0.74789 h 1.876778 c -0.578555,0.43744 -1.3335,0.81139 -2.0955,1.016 0.183445,0.17639 0.4445,0.51505 0.5715,0.71966 0.225778,-0.0776 0.437445,-0.16933 0.656167,-0.27516 v 2.77989 h 0.839611 v -0.21873 h 2.659945 v 0.21167 h 0.881944 v -2.82222 h -4.282722 c 0.592666,-0.30339 1.150055,-0.70556 1.594555,-1.16417 v 1.00189 z"
         style="font-style:normal;font-variant:normal;font-weight:bold;font-stretch:normal;font-family:'Noto Sans CJK TC';-inkscape-font-specification:'Noto Sans CJK TC Bold'"
         id="path45"
         inkscape:connector-curvature="0" />
      <path
         d="m 66.162989,279.75804 c 0.07761,0.1905 0.176389,0.37395 0.282223,0.55739 h -1.636889 c 0.105833,-0.18344 0.197555,-0.36689 0.282222,-0.55739 z m -1.037166,-1.29116 h 0.980722 v 0.53622 h -0.980722 z m 0.994833,2.92805 h -1.128889 v -0.45155 h 1.128889 z m 0.754945,0.62795 v -1.07245 c 0.218722,0.27517 0.465666,0.51506 0.719666,0.6985 0.127,-0.21166 0.395111,-0.508 0.585611,-0.66322 -0.451555,-0.26811 -0.896055,-0.73378 -1.185333,-1.22767 h 1.051278 v -0.75494 h -1.114778 v -0.53622 h 0.910167 v -0.74789 h -0.910167 v -0.71967 h -0.8255 v 0.71967 h -0.980722 v -0.71967 h -0.804334 v 0.71967 h -0.853722 l 0.01411,-0.0212 c -0.268111,-0.23283 -0.811389,-0.51505 -1.220611,-0.68439 l -0.472722,0.635 c 0.423333,0.18345 0.9525,0.50095 1.199444,0.74084 l 0.458611,-0.64206 v 0.71967 h 0.874889 v 0.53622 h -1.150055 v 0.75494 h 1.072444 c -0.268111,0.49389 -0.684389,0.97367 -1.121833,1.27706 l -0.388056,-0.28928 c -0.352777,0.8255 -0.811389,1.7145 -1.128889,2.25778 l 0.747889,0.49389 c 0.331611,-0.635 0.677334,-1.37583 0.973667,-2.08139 0.105833,0.11289 0.197556,0.23283 0.261056,0.33161 0.218722,-0.16228 0.430388,-0.35983 0.627944,-0.59267 v 1.36173 c 0,0.79727 0.261056,1.016 1.164167,1.016 h 1.361722 c 0.747889,0 0.973667,-0.23989 1.0795,-1.15006 -0.218722,-0.0494 -0.550333,-0.16933 -0.712611,-0.28928 -0.04233,0.61384 -0.09878,0.71967 -0.430389,0.71967 h -1.220611 c -0.402167,0 -0.465667,-0.0423 -0.465667,-0.30339 v -0.48683 z m -3.774723,-2.46945 c -0.268111,-0.22577 -0.797278,-0.49389 -1.220611,-0.64205 l -0.451555,0.62794 c 0.416277,0.18345 0.938388,0.47978 1.185333,0.71261 z"
         style="font-style:normal;font-variant:normal;font-weight:bold;font-stretch:normal;font-family:'Noto Sans CJK TC';-inkscape-font-specification:'Noto Sans CJK TC Bold'"
         id="path47"
         inkscape:connector-curvature="0" />
    </g>
  </g>
</svg>
